[0918/031527:ERROR:process_info.cc(330)] VirtualQueryEx: Zugriff verweigert (0x5)
[0918/031527:ERROR:process_info.cc(547)] ReadMemoryInfo failed
[0918/031527:ERROR:process_reader_win.cc(142)] SuspendThread: Zugriff verweigert (0x5)
[0918/031527:ERROR:exception_snapshot_win.cc(87)] thread ID 1580 not found in process
[0918/031527:WARNING:crash_report_exception_handler.cc(56)] ProcessSnapshotWin::Initialize failed
[0918/031527:ERROR:scoped_process_suspend.cc(38)] NtResumeProcess: Es wurde versucht, auf einen Prozess zuzugreifen, der gerade beendet wurde.  (0xc000010a)
